name,type,minZ,maxZ,pointsJson
gm_room_solo1,jail,-3049,-2849,"[{""x"":-116299,""y"":-251426},{""x"":-115745,""y"":-251426},{""x"":-115745,""y"":-250840},{""x"":-116296,""y"":-250840}]"
gm_room_solo2,jail,-3053,-2853,"[{""x"":-113350,""y"":-251408},{""x"":-112797,""y"":-251407},{""x"":-112798,""y"":-250855},{""x"":-113353,""y"":-250857}]"
gm_room,jail,-3050,-2850,"[{""x"":-115727,""y"":-251652},{""x"":-113365,""y"":-251655},{""x"":-113365,""y"":-248191},{""x"":-115727,""y"":-248194}]"