name,type,referenceId,minZ,maxZ,pointsJson
no_escape_1,skillReference,10501,-3050,-2850,"[{""x"":-115727,""y"":-251652},{""x"":-113365,""y"":-251655},{""x"":-113365,""y"":-248191},{""x"":-115727,""y"":-248194}]"
no_escape_2,skillReference,10502,-3049,-2849,"[{""x"":-116299,""y"":-251426},{""x"":-115745,""y"":-251426},{""x"":-115745,""y"":-250840},{""x"":-116296,""y"":-250840}]"
no_escape_3,skillReference,10503,-3053,-2853,"[{""x"":-113350,""y"":-251408},{""x"":-112797,""y"":-251407},{""x"":-112798,""y"":-250855},{""x"":-113353,""y"":-250857}]"
no_escape_4,skillReference,10504,-11624,-11224,"[{""x"":-85850,""y"":-45960},{""x"":-86761,""y"":-45935},{""x"":-87000,""y"":-46986},{""x"":-87535,""y"":-48793},{""x"":-87049,""y"":-49419},{""x"":-85458,""y"":-49051},{""x"":-84224,""y"":-49803},{""x"":-83446,""y"":-49477},{""x"":-83154,""y"":-47528},{""x"":-83863,""y"":-47202},{""x"":-84291,""y"":-47449},{""x"":-84711,""y"":-47094}]"
no_escape_5,skillReference,10505,-11620,-11220,"[{""x"":-84112,""y"":-50103},{""x"":-84830,""y"":-51342},{""x"":-86142,""y"":-51844},{""x"":-86553,""y"":-52634},{""x"":-85640,""y"":-53190},{""x"":-84380,""y"":-54211},{""x"":-83379,""y"":-54413},{""x"":-82972,""y"":-52054},{""x"":-81938,""y"":-51822},{""x"":-82193,""y"":-50685},{""x"":-82732,""y"":-50575},{""x"":-83454,""y"":-49986}]"
no_escape_6,skillReference,10506,-11716,-11316,"[{""x"":-79843,""y"":-49874},{""x"":-81401,""y"":-50399},{""x"":-81709,""y"":-51148},{""x"":-81639,""y"":-51704},{""x"":-80712,""y"":-52824},{""x"":-80414,""y"":-54463},{""x"":-79510,""y"":-54322},{""x"":-78717,""y"":-52952},{""x"":-77725,""y"":-52968},{""x"":-77416,""y"":-51996},{""x"":-78890,""y"":-51583},{""x"":-79378,""y"":-50568}]"
no_escape_7,skillReference,10507,-11592,-11192,"[{""x"":-79343,""y"":-47478},{""x"":-80117,""y"":-47109},{""x"":-80672,""y"":-47858},{""x"":-80382,""y"":-49156},{""x"":-79813,""y"":-49685},{""x"":-79130,""y"":-49730},{""x"":-77951,""y"":-49052},{""x"":-76485,""y"":-49456},{""x"":-76221,""y"":-48619},{""x"":-76710,""y"":-48032},{""x"":-76946,""y"":-46451},{""x"":-77668,""y"":-45794}]"
no_escape_8,skillReference,10508,-11640,-11240,"[{""x"":-82326,""y"":-43857},{""x"":-83361,""y"":-43681},{""x"":-83614,""y"":-44430},{""x"":-82884,""y"":-46072},{""x"":-83209,""y"":-47165},{""x"":-82621,""y"":-47718},{""x"":-81071,""y"":-47576},{""x"":-80636,""y"":-47169},{""x"":-80853,""y"":-46291},{""x"":-79968,""y"":-44123},{""x"":-80245,""y"":-43614},{""x"":-81544,""y"":-43878}]"
no_s_swoop_cannon_1,skillReference,51101,-3325,-325,"[{""x"":-19761,""y"":106717},{""x"":-17065,""y"":106707},{""x"":-16372,""y"":107407},{""x"":-16365,""y"":108351},{""x"":-15653,""y"":108857},{""x"":-15650,""y"":109747},{""x"":-16149,""y"":110295},{""x"":-16149,""y"":112445},{""x"":-17783,""y"":113928},{""x"":-18965,""y"":113925},{""x"":-20477,""y"":112395},{""x"":-20475,""y"":109024},{""x"":-19757,""y"":108203}]"
no_s_swoop_cannon_2,skillReference,51102,-3533,-533,"[{""x"":24389,""y"":157488},{""x"":24398,""y"":160923},{""x"":23789,""y"":161566},{""x"":23798,""y"":163079},{""x"":21170,""y"":163085},{""x"":20090,""y"":162065},{""x"":20099,""y"":161445},{""x"":19397,""y"":160439},{""x"":19971,""y"":159494},{""x"":19971,""y"":157487},{""x"":21554,""y"":155879},{""x"":23105,""y"":155885}]"
no_s_swoop_cannon_3,skillReference,51103,-3000,0,"[{""x"":113630,""y"":142600},{""x"":117151,""y"":142602},{""x"":118085,""y"":143188},{""x"":119331,""y"":143280},{""x"":119351,""y"":146088},{""x"":118505,""y"":147038},{""x"":117672,""y"":147096},{""x"":116511,""y"":147715},{""x"":115540,""y"":147237},{""x"":113723,""y"":147237},{""x"":112723,""y"":146279},{""x"":112027,""y"":145412},{""x"":112013,""y"":144502}]"
no_s_swoop_cannon_4,skillReference,51104,-3320,-320,"[{""x"":79720,""y"":34771},{""x"":83242,""y"":34773},{""x"":84176,""y"":35359},{""x"":85422,""y"":35451},{""x"":85441,""y"":38258},{""x"":84584,""y"":39110},{""x"":83762,""y"":39119},{""x"":82601,""y"":39886},{""x"":81631,""y"":39407},{""x"":79814,""y"":39408},{""x"":78814,""y"":38450},{""x"":78118,""y"":37583},{""x"":78104,""y"":36672}]"
no_s_swoop_cannon_5,skillReference,51105,-1062,8938,"[{""x"":144406,""y"":1077},{""x"":150586,""y"":1051},{""x"":150592,""y"":5125},{""x"":149973,""y"":6169},{""x"":150232,""y"":8978},{""x"":144667,""y"":8971},{""x"":144992,""y"":6142},{""x"":144411,""y"":5220}]"
no_s_swoop_cannon_6,skillReference,51106,-1936,1064,"[{""x"":118288,""y"":246245},{""x"":118297,""y"":249680},{""x"":117688,""y"":250323},{""x"":117696,""y"":251836},{""x"":115069,""y"":251842},{""x"":113988,""y"":250822},{""x"":113997,""y"":250202},{""x"":113296,""y"":249196},{""x"":113870,""y"":248251},{""x"":113869,""y"":246244},{""x"":115460,""y"":244643},{""x"":117004,""y"":244642}]"
no_s_swoop_cannon_8,skillReference,51108,-3000,8000,"[{""x"":11670,""y"":-52692},{""x"":16653,""y"":-52693},{""x"":18368,""y"":-51762},{""x"":19492,""y"":-49506},{""x"":19492,""y"":-48773},{""x"":18368,""y"":-46554},{""x"":16836,""y"":-45585},{""x"":11699,""y"":-45596}]"
no_s_swoop_cannon_9,skillReference,51109,-1251,3149,"[{""x"":73859,""y"":-153166},{""x"":81148,""y"":-153196},{""x"":81139,""y"":-151736},{""x"":80376,""y"":-149992},{""x"":77928,""y"":-148474},{""x"":77141,""y"":-148473},{""x"":74683,""y"":-150017},{""x"":73858,""y"":-151680}]"
allow_s_disrupting_arrow,skillReference,2234,-9239,-8739,"[{""x"":-86067,""y"":-152626},{""x"":-86292,""y"":-152322},{""x"":-87125,""y"":-151593},{""x"":-88505,""y"":-151586},{""x"":-89313,""y"":-152278},{""x"":-89503,""y"":-152648},{""x"":-89500,""y"":-153806},{""x"":-89429,""y"":-154257},{""x"":-88538,""y"":-155006},{""x"":-87030,""y"":-155003},{""x"":-86063,""y"":-154215}]"
allow_s_item_scroll_of_stone,skillReference,2239,-5064,-64,"[{""x"":99294,""y"":-130555},{""x"":114151,""y"":-130344},{""x"":113630,""y"":-124346},{""x"":99617,""y"":-122509}]"
allow_s_item_hot_spring,skillReference,2240123,-2460,-1860,"[{""x"":150253,""y"":-127587},{""x"":154061,""y"":-128780},{""x"":157203,""y"":-125699},{""x"":154870,""y"":-123511},{""x"":150933,""y"":-124975}]"
allow_s_disrupting_dew,skillReference,2276,-9239,-8739,"[{""x"":-86067,""y"":-152626},{""x"":-86292,""y"":-152322},{""x"":-87125,""y"":-151593},{""x"":-88505,""y"":-151586},{""x"":-89313,""y"":-152278},{""x"":-89503,""y"":-152648},{""x"":-89500,""y"":-153806},{""x"":-89429,""y"":-154257},{""x"":-88538,""y"":-155006},{""x"":-87030,""y"":-155003},{""x"":-86063,""y"":-154215}]"
allow_s_item_detect_hide_door,skillReference,2353,-12923,-12723,"[{""x"":-107560,""y"":83571},{""x"":-107293,""y"":83571},{""x"":-107293,""y"":83823},{""x"":-107560,""y"":83823}]"
allow_s_frintessa_daemon_charge,skillReference,5015,-5175,-4675,"[{""x"":174657,""y"":-88953},{""x"":175155,""y"":-88446},{""x"":175142,""y"":-87562},{""x"":174600,""y"":-87099},{""x"":173854,""y"":-87098},{""x"":173331,""y"":-87540},{""x"":173322,""y"":-88469},{""x"":173812,""y"":-88958}]"
allow_s_item_freezing_core,skillReference,90578,-11249,-10749,"[{""x"":112898,""y"":-117865},{""x"":116554,""y"":-117891},{""x"":116597,""y"":-112972},{""x"":112920,""y"":-112997}]"
