id,name,category,price,productType,enabled,items
1070001,p_br_cash_fortuna_box_c,5,17500,best,1,22000;1
1070002,p_br_cash_fortuna_box_b,5,48000,best,1,22001;1
1070003,p_br_cash_fortuna_box_a,5,156600,best,1,22002;1
1070004,p_br_cash_fortuna_cube_c,5,8700,best,1,22003;1
1070005,p_br_1070005,5,27000,best,1,22004;1
1070006,p_br_cash_fortuna_cube_a,5,87000,best,1,22005;1
1070007,p_br_cash_greater_healing_potion,2,200,none,1,22025;1
1070008,p_br_1070008,2,100,none,1,22026;1
1070009,p_br_cash_elixir_of_combative_d,2,0,none,0,22027;1
1070010,p_br_cash_elixir_of_combative_c,2,0,none,0,22028;1
1070011,p_br_cash_elixir_of_combative_b,2,0,none,0,22029;1
1070012,p_br_cash_elixir_of_combative_a,2,0,none,0,22030;1
1070013,p_br_cash_elixir_of_combative_s,2,0,none,0,22031;1
1070014,p_br_cash_elixir_of_life_d,2,0,none,0,22032;1
1070015,p_br_cash_elixir_of_life_c,2,0,none,0,22033;1
1070016,p_br_cash_elixir_of_life_b,2,0,none,0,22034;1
1070017,p_br_cash_elixir_of_life_a,2,0,none,0,22035;1
1070018,p_br_cash_elixir_of_life_s,2,0,none,0,22036;1
1070019,p_br_cash_cp_potion,2,300,best,1,22037;1
1070020,p_br_cash_mana_potion,2,0,none,0,22038;1
1070021,p_br_cash_scroll_of_wind_walk,2,580,none,1,22039;1
1070022,p_br_cash_scroll_of_haste,2,580,none,1,22040;1
1070023,p_br_cash_scroll_of_might,2,580,none,1,22041;1
1070024,p_br_cash_scroll_of_shield,2,580,none,1,22042;1
1070025,p_br_cash_scroll_of_death_whisper,2,580,none,1,22043;1
1070026,p_br_cash_scroll_of_guidance,2,580,none,1,22044;1
1070027,p_br_cash_scroll_of_empower,2,580,none,1,22045;1
1070028,p_br_cash_scroll_of_greater_acumen,2,580,none,1,22046;1
1070029,p_br_cash_scroll_of_vampiric_rage,2,580,none,1,22047;1
1070030,p_br_cash_scroll_of_bless_the_body,2,580,none,1,22048;1
1070031,p_br_cash_scroll_of_berserker_spirit,2,580,none,1,22049;1
1070032,p_br_cash_scroll_of_magic_barrier,2,580,none,1,22050;1
1070033,p_br_cash_scroll_of_bless_the_soul,2,580,none,1,22051;1
1070034,p_br_cash_scroll_of_clarity,2,580,none,1,22052;1
1070035,p_br_cash_scroll_of_wild_magic,2,580,none,1,22053;1
1070036,p_br_cash_rune_of_exp_1,1,0,none,0,22054;1
1070037,p_br_cash_rune_of_exp_2,1,0,none,0,22055;1
1070038,p_br_cash_rune_of_exp_3,1,0,none,0,22056;1
1070039,p_br_cash_rune_of_exp_4,1,0,none,0,22057;1
1070040,p_br_cash_rune_of_sp_1,1,0,none,0,22058;1
1070041,p_br_cash_rune_of_sp_2,1,0,none,0,22059;1
1070042,p_br_cash_rune_of_sp_3,1,0,none,0,22060;1
1070043,p_br_cash_rune_of_sp_4,1,0,none,0,22061;1
1070044,p_br_cash_rune_of_rp_1,1,0,none,0,22062;1
1070045,p_br_cash_rune_of_rp_2,1,0,none,0,22063;1
1070046,p_br_cash_rune_of_rp_3,1,0,none,0,22064;1
1070047,p_br_cash_rune_of_rp_4,1,0,none,0,22065;1
1070048,p_br_cash_rune_of_feather,1,3000,none,1,22066;1
1070049,p_br_cash_fighter_buff_set,4,4500,none,1,22087;1
1070050,p_br_cash_mage_buff_set,4,4500,none,1,22088;1
1070051,p_br_cash_quiver_of_bone_arrows,2,860,none,1,22089;1
1070052,p_br_cash_quiver_of_fine_steel_arrows,2,1430,none,1,22090;1
1070053,p_br_cash_quiver_of_silver_arrows,2,2000,none,1,22091;1
1070054,p_br_cash_quiver_of_mithril_arrows,2,2300,none,1,22092;1
1070055,p_br_cash_quiver_of_shining_arrows,2,2860,none,1,22093;1
1070056,p_br_cash_quiver_of_bone_bolts,2,860,none,1,22149;1
1070057,p_br_cash_quiver_of_fine_steel_bolts,2,1430,none,1,22150;1
1070058,p_br_cash_quiver_of_silver_bolts,2,2000,none,1,22151;1
1070059,p_br_cash_quiver_of_mithril_bolts,2,2300,none,1,22152;1
1070060,p_br_cash_quiver_of_shining_bolts,2,2860,none,1,22153;1
1070061,p_br_cash_pack_of_blessed_spiritshot_d,2,3900,none,1,22094;1
1070062,p_br_cash_pack_of_blessed_spiritshot_c,2,7800,none,1,22095;1
1070063,p_br_cash_pack_of_blessed_spiritshot_b,2,21500,none,1,22096;1
1070064,p_br_cash_pack_of_blessed_spiritshot_a,2,25500,none,1,22097;1
1070065,p_br_cash_pack_of_blessed_spiritshot_s,2,30850,none,1,22098;1
1070066,p_br_cash_pack_of_spiritshot_d,2,1500,none,1,22099;1
1070067,p_br_cash_pack_of_spiritshot_c,2,3000,none,1,22100;1
1070068,p_br_cash_pack_of_spiritshot_b,2,8500,none,1,22101;1
1070069,p_br_cash_pack_of_spiritshot_a,2,10200,none,1,22102;1
1070070,p_br_cash_pack_of_spiritshot_s,2,12800,none,1,22103;1
1070071,p_br_cash_pack_of_soulshot_d,2,850,none,1,22104;1
1070072,p_br_cash_pack_of_soulshot_c,2,1250,none,1,22105;1
1070073,p_br_cash_pack_of_soulshot_b,2,4300,none,1,22106;1
1070074,p_br_cash_pack_of_soulshot_a,2,7050,none,1,22107;1
1070075,p_br_cash_pack_of_soulshot_s,2,10500,none,1,22108;1
1070076,p_br_cash_large_pack_of_blessed_spiritshot_d,2,7400,none,1,22109;1
1070077,p_br_cash_large_pack_of_blessed_spiritshot_c,2,15200,none,1,22110;1
1070078,p_br_cash_large_pack_of_blessed_spiritshot_b,2,42600,none,1,22111;1
1070079,p_br_cash_large_pack_of_blessed_spiritshot_a,2,50600,none,1,22112;1
1070080,p_br_cash_large_pack_of_blessed_spiritshot_s,2,61300,none,1,22113;1
1070081,p_br_cash_large_pack_of_spiritshot_d,2,2600,none,1,22114;1
1070082,p_br_cash_large_pack_of_spiritshot_c,2,5600,none,1,22115;1
1070083,p_br_cash_large_pack_of_spiritshot_b,2,16400,none,1,22116;1
1070084,p_br_cash_large_pack_of_spiritshot_a,2,20000,none,1,22117;1
1070085,p_br_cash_large_pack_of_spiritshot_s,2,25200,none,1,22118;1
1070086,p_br_cash_large_pack_of_soulshot_d,2,1300,none,1,22119;1
1070087,p_br_cash_large_pack_of_soulshot_c,2,2100,none,1,22120;1
1070088,p_br_cash_large_pack_of_soulshot_b,2,8200,none,1,22121;1
1070089,p_br_cash_large_pack_of_soulshot_a,2,13700,none,1,22122;1
1070090,p_br_cash_large_pack_of_soulshot_s,2,20600,none,1,22123;1
1070091,p_br_cash_wrapped_daisy_hairpin,3,12000,none,1,22124;1
1070092,p_br_cash_wrapped_forget_me_not_hairpin,3,12000,none,1,22125;1
1070093,p_br_cash_wrapped_outlaw_eyepatch,3,12000,none,1,22126;1
1070094,p_br_cash_wrapped_eye_bandage_of_pirate,3,12000,none,1,22127;1
1070095,p_br_cash_wrapped_monocle,3,12000,none,1,22128;1
1070096,p_br_cash_wrapped_mask_of_reddevil,3,15000,none,1,22129;1
1070097,p_br_cash_wrapped_horn_of_reddevil,3,15000,none,1,22130;1
1070098,p_br_cash_wrapped_party_mask,3,15000,none,1,22131;1
1070099,p_br_cash_wrapped_party_mask_01,3,12000,none,1,22132;1
1070100,p_br_cash_wrapped_cat_ear,3,18000,none,1,22133;1
1070101,p_br_cash_wrapped_hair_pin_of_lady,3,12000,none,1,22134;1
1070102,p_br_cash_wrapped_racoon_ear,3,18000,none,1,22135;1
1070103,p_br_cash_wrapped_rabbit_ear,3,18000,none,1,22136;1
1070104,p_br_cash_wrapped_wing_of_little_angel,3,12000,none,1,22137;1
1070105,p_br_cash_wrapped_feeler_of_fairy,3,15000,none,1,22138;1
1070106,p_br_cash_wrapped_chaperon_of_dresser,3,15000,none,1,22139;1
1070107,p_br_cash_wrapped_goggle_of_artisan,3,12000,none,1,22140;1
1070108,p_br_cash_wrapped_ticket_buffalo_panpipe,5,0,none,0,22141;1
1070109,p_br_cash_wrapped_ticket_cougar_chime,5,0,none,0,22142;1
1070110,p_br_cash_wrapped_ticket_kukaburo_ocarina,5,0,none,0,22143;1
1070111,p_br_cash_special_wolf_cap,4,0,none,0,22154;1|22155;1
1070112,p_br_rune_of_exp_30_5h,1,3200,none,1,20335;1
1070113,p_br_rune_of_exp_50_5h,1,5500,best,1,20336;1
1070114,p_br_rune_of_exp_30_10h,1,5150,none,1,20337;1
1070115,p_br_rune_of_exp_50_10h,1,8850,best,1,20338;1
1070116,p_br_rune_of_exp_30_7d,1,74000,none,1,20339;1
1070117,p_br_rune_of_exp_50_7d,1,123000,best,1,20340;1
1070118,p_br_rune_of_sp_30_5h,1,1700,none,1,20341;1
1070119,p_br_rune_of_sp_50_5h,1,2800,best,1,20342;1
1070120,p_br_rune_of_sp_30_10h,1,2740,none,1,20343;1
1070121,p_br_rune_of_sp_50_10h,1,4500,best,1,20344;1
1070122,p_br_rune_of_sp_30_7d,1,39400,none,1,20345;1
1070123,p_br_rune_of_sp_50_7d,1,62500,best,1,20346;1
1070124,p_br_rune_of_rp_30_5h,1,3200,none,1,20347;1
1070125,p_br_rune_of_rp_50_5h,1,5500,none,1,20348;1
1070126,p_br_rune_of_rp_30_10h,1,5150,none,1,20349;1
1070127,p_br_rune_of_rp_50_10h,1,8850,none,1,20350;1
1070128,p_br_rune_of_rp_30_7d,1,74000,none,1,20351;1
1070129,p_br_rune_of_rp_50_7d,1,123000,none,1,20352;1
1070130,p_pi_weapon_enchant_aux_stone_d,1,0,none,0,12362;1
1070131,p_pi_weapon_enchant_aux_stone_c,1,0,none,0,12363;1
1070132,p_pi_weapon_enchant_aux_stone_b,1,0,none,0,12364;1
1070133,p_pi_weapon_enchant_aux_stone_a,1,0,none,0,12365;1
1070134,p_pi_weapon_enchant_aux_stone_s,1,0,none,0,12366;1
1070135,p_pi_armor_enchant_aux_stone_d,1,0,none,0,12367;1
1070136,p_pi_armor_enchant_aux_stone_c,1,0,none,0,12368;1
1070137,p_pi_armor_enchant_aux_stone_b,1,0,none,0,12369;1
1070138,p_pi_armor_enchant_aux_stone_a,1,0,none,0,12370;1
1070139,p_pi_armor_enchant_aux_stone_s,1,0,none,0,12371;1
1070140,p_br_box_beast_soul_shot,2,1000,none,1,20326;1
1070141,p_br_box_beast_spirit_shot,2,1390,none,1,20327;1
1070142,p_br_box_blessed_beast_spirit_shot,2,8700,none,1,20328;1
1070143,p_br_large_box_beast_soul_shot,2,3480,none,1,20329;1
1070144,p_br_large_box_beast_spirit_shot,2,2800,none,1,20330;1
1070145,p_br_large_box_blessed_beast_spirit_shot,2,17400,none,1,20331;1
1070146,p_br_scroll_of_transformation_onyx_beast,2,1800,none,1,20364;1
1070147,p_br_scroll_of_transformation_death_blader,2,1800,none,1,20365;1
1070148,p_br_scroll_of_transformation_apostle,2,1800,none,1,20366;1
1070149,p_br_scroll_of_transformation_unicorn,2,1800,best,1,20367;1
1070150,p_br_scroll_of_transformation_lilim_knight,2,1800,none,1,20368;1
1070151,p_br_scroll_of_transformation_golem_guardian,2,1800,best,1,20369;1
1070152,p_br_scroll_of_transformation_inferno_drake,2,1800,none,1,20370;1
1070153,p_br_scroll_of_transformation_dragon_bomber,2,1800,none,1,20371;1
1070154,p_br_escape_scroll_talking,2,500,none,1,20372;1
1070155,p_br_escape_scroll_elf,2,500,none,1,20373;1
1070156,p_br_escape_scroll_darkelf,2,500,none,1,20374;1
1070157,p_br_escape_scroll_orc,2,500,none,1,20375;1
1070158,p_br_escape_scroll_dwarf,2,500,none,1,20376;1
1070159,p_br_escape_scroll_gludin,2,1000,none,1,20377;1
1070160,p_br_escape_scroll_gludio,2,1000,none,1,20378;1
1070161,p_br_escape_scroll_dion,2,1000,none,1,20379;1
1070162,p_br_escape_scroll_floran,2,1000,none,1,20380;1
1070163,p_br_escape_scroll_giran,2,1000,none,1,20381;1
1070164,p_br_escape_scroll_hardin,2,1000,none,1,20382;1
1070165,p_br_escape_scroll_heiness,2,1000,none,1,20383;1
1070166,p_br_escape_scroll_oren,2,1000,none,1,20384;1
1070167,p_br_escape_scroll_ivorytower,2,1000,none,1,20385;1
1070168,p_br_escape_scroll_hunter,2,1000,none,1,20386;1
1070169,p_br_escape_scroll_aden,2,1000,none,1,20387;1
1070170,p_br_escape_scroll_godard,2,1000,none,1,20388;1
1070171,p_br_escape_scroll_rune,2,1000,none,1,20389;1
1070172,p_br_escape_scroll_schtgart,2,1000,none,1,20390;1
1070173,p_pi_book_of_bookmark,2,21000,none,1,13015;1
1070174,p_br_pi_page_of_bookmark_5,2,3000,none,1,20025;5
1070175,p_br_pi_page_of_bookmark_10,2,6000,best,1,20025;10
1070176,p_br_pi_flag_of_bookmark_5,2,27500,none,1,20033;5
1070177,p_br_pi_flag_of_bookmark_10,2,45000,best,1,20033;10
1070178,p_br_pi_kamaloka_holl_of_abyss_ticket_5,2,30000,none,1,20026;5
1070179,p_br_pi_kamaloka_holl_of_abyss_ticket_10,2,50000,best,1,20026;10
1070180,p_br_pi_near_kamaloka_ticket_5,2,30000,none,1,20027;5
1070181,p_br_pi_near_kamaloka_ticket_10,2,50000,none,1,20027;10
1070182,p_br_pi_kamaloka_rabyrinth_of_abyss_ticket_5,2,30000,none,1,20028;5
1070183,p_br_pi_kamaloka_rabyrinth_of_abyss_ticket_10,2,50000,none,1,20028;10
1070184,p_elixer_premium_1,2,25000,none,1,10649;1
1070185,p_pi_color_name,2,7000,best,1,13021;1
1070186,p_br_adv_cp_potion,2,1000,best,1,20353;1
1070187,p_br_elixir_of_combative_d,2,100,none,1,20354;1
1070188,p_br_elixir_of_combative_c,2,320,none,1,20355;1
1070189,p_br_elixir_of_combative_b,2,560,none,1,20356;1
1070190,p_br_elixir_of_combative_a,2,900,none,1,20357;1
1070191,p_br_elixir_of_combative_s,2,1500,none,1,20358;1
1070192,p_br_elixir_of_life_d,2,300,none,1,20359;1
1070193,p_br_elixir_of_life_c,2,800,none,1,20360;1
1070194,p_br_elixir_of_life_b,2,1400,none,1,20361;1
1070195,p_br_elixir_of_life_a,2,2200,none,1,20362;1
1070196,p_br_elixir_of_life_s,2,3200,none,1,20363;1
1070197,p_br_vitality_potion_maintain,2,6000,none,1,20391;1
1070198,p_br_vitality_potion_25charge,2,3000,best,1,20392;1
1070199,p_br_sweet_fruit_cocktail,2,3000,best,1,20393;1
1070200,p_br_lanky_fruit_cocktail,2,3600,best,1,20394;1
1070201,p_pi_orange_box_agathion_anger,3,5000,none,1,139;1
1070202,p_pi_orange_box_agathion_pleasure,3,5000,none,1,140;1
1070203,p_pi_orange_box_agathion_sorrow,3,5000,none,1,141;1
1070204,p_pi_orange_box_agathion_love,3,5000,none,1,13280;1
1070205,p_pi_orange_box_pumpkin_stick,3,5000,none,1,13281;1
1070206,p_pi_orange_box_cat_the_cat_cap,3,5000,none,1,13282;1
1070207,p_pi_orange_box_queen_of_cat_cap,3,5000,none,1,13283;1
1070208,p_pi_orange_box_monstereye_cap,3,5000,none,1,13284;1
1070209,p_pi_orange_box_brown_bear_cap,3,5000,none,1,13285;1
1070210,p_pi_orange_box_fungus_cap,3,5000,none,1,13286;1
1070211,p_pi_orange_box_skeleton_cap,3,5000,none,1,13287;1
1070212,p_pi_orange_box_ornithomimus_cap,3,5000,none,1,13288;1
1070213,p_pi_orange_box_king_of_cat_cap,3,5000,none,1,13289;1
1070214,p_pi_orange_box_chi_the_cat_cap,3,5000,none,1,13290;1
1070215,p_br_1070215,3,25000,none,0,20315;1
1070216,p_br_1070216,3,40000,best,0,20316;1
1070217,p_br_box_black_gem_mask,3,25000,none,0,20318;1
1070218,p_br_box_afro_hair_gold,3,35000,none,0,20278;1
1070219,p_br_box_afro_hair_pink,3,35000,none,0,20279;1
1070220,p_br_box_black_glasses,3,63000,none,0,20045;1
1070221,p_br_box_afro_hair,3,35000,none,0,20046;1
1070222,p_br_box_afro_hair_bighead_fire,3,49000,none,0,20047;1
1070223,p_br_box_afro_hair_wind,3,49000,none,0,20048;1
1070224,p_br_1070224,3,49000,none,0,20049;1
1070225,p_br_1070225,3,35000,none,0,20050;1
1070226,p_br_1070226,3,49000,none,0,20051;1
1070227,p_br_box_ribbon_band,3,49000,none,0,20052;1
1070228,p_br_box_visor,3,49000,none,0,20053;1
1070229,p_pi_helper_ticket_1,5,10000,none,1,13273;1
1070230,p_pi_helper_ticket_3,5,0,none,0,13273;3
1070231,p_pi_special_pet_trade_ticket_1,5,15000,none,1,14065;1
1070232,p_pi_special_pet_trade_ticket_3,5,0,none,0,14065;3
1070233,p_pi_blue_steam_beetle_bracelet,5,9000,none,1,14232;1
1070234,p_br_box_pi_talisman_gray_horse_30,5,27000,best,1,20059;1
1070235,p_br_1070235,3,45000,none,1,20698;1
1070236,p_br_1070236,3,45000,none,1,20704;1
1070237,p_br_1070237,3,45000,none,1,20700;1
1070238,p_br_1070238,3,50000,none,1,20316;1
1070239,p_br_1070239,3,45000,none,1,20702;1
1070240,p_br_1070240,3,50000,none,1,20692;1
1070241,p_br_1070241,3,45000,none,1,20404;1
1070242,p_br_1070242,3,25000,none,1,20319;1
1070243,p_br_1070243,3,50000,none,1,13504;1
1070244,p_br_1070244,3,50000,none,1,8564;1
1070245,p_br_1070245,3,10000,none,1,20459;1
1070246,p_br_1070246,3,10000,none,1,20460;1
1070247,p_br_1070247,3,10000,none,1,20463;1
1070248,p_br_1070248,3,10000,none,1,20464;1
1070249,p_br_1070249,3,10000,none,1,20465;1
1070250,p_br_1070250,3,10000,none,1,20466;1
1070251,p_br_1070251,2,5000,none,1,5242;1
1070252,p_br_1070252,2,5000,none,1,5243;1
1070253,p_br_1070253,2,5000,none,1,5244;1
1070254,p_br_1070254,2,5000,none,1,5245;1
1070255,p_br_1070255,2,5000,none,1,5246;1
1070256,p_br_1070256,2,5000,none,1,5247;1
1070257,p_br_1070257,2,5000,none,1,5248;1
1070258,p_br_1070258,2,5000,none,1,5235;1
1070259,p_br_1070259,2,5000,none,1,5236;1
1070260,p_br_1070260,2,5000,none,1,5237;1
1070261,p_br_1070261,2,5000,none,1,5238;1
1070262,p_br_1070262,2,5000,none,1,5239;1
1070263,p_br_1070263,2,5000,none,1,5240;1
1070264,p_br_1070264,2,5000,none,1,5241;1
1070265,p_br_1070265,2,500,none,1,1374;1
1070266,p_br_1070266,2,500,none,1,1375;1
1070267,p_br_1070267,2,500,none,1,6036;1
1070268,p_br_1070268,3,5000,none,1,14263;1
1070269,p_br_1070269,3,7500,none,1,20242;1
1070270,p_br_1070270,3,7500,none,1,20243;1
1070271,p_br_1070271,3,7500,none,1,20244;1
1070272,p_br_1070272,5,30000,none,1,20541;1
1070273,p_br_1070273,5,2500,none,1,14676;1
1070274,p_br_1070274,5,10000,none,1,14676;5
1070275,p_br_1070275,1,1300,none,1,12362;1
1070276,p_br_1070276,1,2100,none,1,12363;1
1070277,p_br_1070277,1,8200,none,1,12364;1
1070278,p_br_1070278,1,13700,none,1,12365;1
1070279,p_br_1070279,1,20600,none,1,12366;1
1070280,p_br_1070280,1,850,none,1,12367;1
1070281,p_br_1070281,1,1250,none,1,12368;1
1070282,p_br_1070282,1,4300,none,1,12369;1
1070283,p_br_1070283,1,7050,none,1,12370;1
1070284,p_br_1070284,1,10500,none,1,12371;1
1070285,p_br_1070285,1,18000,none,1,6569;1
1070286,p_br_1070286,1,185000,none,1,6577;1
1070287,p_br_1070287,1,15000,none,1,6570;1
1070288,p_br_1070288,1,25000,none,1,6578;1
1070289,p_br_1070289,1,2100,none,1,20572;1
1070290,p_br_1070290,1,1000,none,1,21084;1
1070291,p_br_1070291,1,500,none,1,21086;1
1070292,p_br_1070292,1,1300,none,1,21084;1|21086;1
1070293,p_br_1070293,3,45000,none,1,20280;1
1070294,p_br_1070294,3,45000,none,1,20282;1
1070295,p_br_1070295,3,50000,none,1,20284;1
1070296,p_br_1070296,3,45000,none,1,20286;1
1070297,p_br_1070297,3,10000,none,1,20289;1
1070298,p_br_1070298,3,45000,none,1,20290;1
1070299,p_br_1070299,3,10000,none,1,20291;1
1070300,p_br_1070300,3,45000,none,1,20292;1
1070301,p_br_1070301,3,60000,none,1,20318;1
1070302,p_br_1070302,3,10000,none,1,21649;1
1070303,p_br_1070303,3,60000,none,1,10247;1
1070304,p_br_1070304,3,60000,none,1,13505;1
1070305,p_br_1070305,1,4500,best,1,17184;1
1070306,p_br_1070306,1,8500,best,1,17185;1
1070307,p_br_1070307,1,40000,best,1,17276;1
1070308,p_br_1070308,1,78500,best,1,17277;1
1070309,p_br_1070309,3,11000,none,1,21162;1
1070310,p_br_1070310,3,11000,none,1,21163;1
1070311,p_br_1070311,3,11000,none,1,8913;1
1070312,p_br_1070312,3,11000,none,1,10240;1
1070313,p_br_1070313,3,11000,none,1,8560;1
1070314,p_br_1070314,3,11000,none,1,8561;1
1070315,p_br_1070315,3,21000,none,1,9883;1
1070316,p_br_1070316,3,21000,none,1,9884;1
1070317,p_br_1070317,3,21000,none,1,9890;1
1070318,p_br_1070318,3,21000,none,1,9891;1
1070319,p_br_1070319,5,100000,best,1,21580;1
1070320,p_br_1070320,1,6500,best,1,21581;1
1070321,p_br_1070321,1,58500,best,1,21581;10
1070322,p_br_1070322,1,30000,best,1,21582;1
1070323,p_br_1070323,1,290000,best,1,21582;10
1070324,p_br_1070324,4,15000,best,1,20391;1|20767;1|21085;1|21087;1